EESchema Schematic File Version 4
LIBS:servo-cache
EELAYER 26 0
EELAYER END
$Descr A4 11693 8268
encoding utf-8
Sheet 1 1
Title "Servomechanizmus ventilu radiátora"
Date "2019-05-15"
Rev "0.1"
Comp ""
Comment1 ""
Comment2 ""
Comment3 ""
Comment4 ""
$EndDescr
$Comp
L servo-rescue:ATMEGA32M1-AU U1
U 1 1 5C7BCFAA
P 3700 4450
F 0 "U1" H 2750 6280 50  0000 L BNN
F 1 "ATMEGA32M1-AU" H 4200 3050 50  0000 L BNN
F 2 "Housings_QFP:TQFP-32_7x7mm_Pitch0.8mm" H 3700 4450 50  0001 C CIN
F 3 "" H 3700 4450 50  0001 C CNN
F 4 "TME:ATMEGA32M1-AU" H 3700 4450 50  0001 C CNN "Shop"
	1    3700 4450
	1    0    0    -1  
$EndComp
$Comp
L servo-rescue:L7805 U4
U 1 1 5C7BD0EE
P 9500 1650
F 0 "U4" H 9350 1775 50  0000 C CNN
F 1 "L7805" H 9500 1775 50  0000 L CNN
F 2 "TO_SOT_Packages_SMD:TO-263-2" H 9525 1500 50  0001 L CIN
F 3 "" H 9500 1600 50  0001 C CNN
F 4 "TME:L7805ABD2T" H 0   0   50  0001 C CNN "Shop"
	1    9500 1650
	1    0    0    -1  
$EndComp
$Comp
L servo-rescue:C C4
U 1 1 5C7BD1CB
P 10100 1850
F 0 "C4" H 10125 1950 50  0000 L CNN
F 1 "100n" H 10125 1750 50  0000 L CNN
F 2 "Capacitors_SMD:C_1206_HandSoldering" H 10138 1700 50  0001 C CNN
F 3 "" H 10100 1850 50  0001 C CNN
F 4 "GME:905-081" H 0   0   50  0001 C CNN "Shop"
	1    10100 1850
	1    0    0    -1  
$EndComp
Wire Wire Line
	9800 1650 10100 1650
Wire Wire Line
	10100 1500 10100 1650
Wire Wire Line
	10100 2100 10100 2000
Wire Wire Line
	8900 2100 9500 2100
Wire Wire Line
	9500 1950 9500 2100
$Comp
L servo-rescue:CP C3
U 1 1 5C7BD22D
P 8900 1850
F 0 "C3" H 8925 1950 50  0000 L CNN
F 1 "330u" H 8925 1750 50  0000 L CNN
F 2 "Capacitors_SMD:CP_Elec_10x10" H 8938 1700 50  0001 C CNN
F 3 "" H 8900 1850 50  0001 C CNN
F 4 "TME:CA1E337M10010VR" H 0   0   50  0001 C CNN "Shop"
	1    8900 1850
	1    0    0    -1  
$EndComp
Wire Wire Line
	9200 1650 8900 1650
Wire Wire Line
	8900 1500 8900 1650
Wire Wire Line
	8900 2100 8900 2000
Connection ~ 9500 2100
$Comp
L power:+12V #PWR01
U 1 1 5C7BD2F6
P 8900 1500
F 0 "#PWR01" H 8900 1350 50  0001 C CNN
F 1 "+12V" H 8900 1640 50  0000 C CNN
F 2 "" H 8900 1500 50  0001 C CNN
F 3 "" H 8900 1500 50  0001 C CNN
	1    8900 1500
	1    0    0    -1  
$EndComp
Connection ~ 8900 1650
$Comp
L power:GND #PWR02
U 1 1 5C7BD322
P 9500 2250
F 0 "#PWR02" H 9500 2000 50  0001 C CNN
F 1 "GND" H 9500 2100 50  0000 C CNN
F 2 "" H 9500 2250 50  0001 C CNN
F 3 "" H 9500 2250 50  0001 C CNN
	1    9500 2250
	1    0    0    -1  
$EndComp
$Comp
L power:+5V #PWR03
U 1 1 5C7BD376
P 10100 1500
F 0 "#PWR03" H 10100 1350 50  0001 C CNN
F 1 "+5V" H 10100 1640 50  0000 C CNN
F 2 "" H 10100 1500 50  0001 C CNN
F 3 "" H 10100 1500 50  0001 C CNN
	1    10100 1500
	1    0    0    -1  
$EndComp
Connection ~ 10100 1650
$Comp
L servo-rescue:AVR-ISP-10 CON1
U 1 1 5C7BD8F2
P 1850 1150
F 0 "CON1" H 1680 1480 50  0000 C CNN
F 1 "AVR-ISP-10" H 1450 800 50  0000 L BNN
F 2 "Pin_Headers:Pin_Header_Straight_2x05_Pitch2.54mm" V 1100 1200 50  0001 C CNN
F 3 "" H 1850 1150 50  0001 C CNN
F 4 "TME:ZL202-10G" H -1900 -50 50  0001 C CNN "Shop"
	1    1850 1150
	1    0    0    -1  
$EndComp
Text GLabel 1100 950  0    55   Input ~ 0
MOSI_A
Text GLabel 1100 1150 0    55   Input ~ 0
RST
Text GLabel 1100 1250 0    55   Input ~ 0
SCK_A
Text GLabel 4900 4750 2    55   Input ~ 0
MISO_A
Wire Wire Line
	1650 950  1100 950 
Wire Wire Line
	1100 1150 1650 1150
Wire Wire Line
	1650 1250 1100 1250
Wire Wire Line
	1100 1350 1650 1350
$Comp
L power:+5V #PWR04
U 1 1 5C7BDE49
P 2550 750
F 0 "#PWR04" H 2550 600 50  0001 C CNN
F 1 "+5V" H 2550 890 50  0000 C CNN
F 2 "" H 2550 750 50  0001 C CNN
F 3 "" H 2550 750 50  0001 C CNN
	1    2550 750 
	1    0    0    -1  
$EndComp
$Comp
L servo-rescue:Conn_01x02 J1
U 1 1 5C7BDE67
P 2800 950
F 0 "J1" H 2800 750 50  0000 C CNN
F 1 "Conn_01x02" H 2800 1050 50  0000 C CNN
F 2 "Pin_Headers:Pin_Header_Straight_1x02_Pitch2.54mm" H 2800 950 50  0001 C CNN
F 3 "" H 2800 950 50  0001 C CNN
	1    2800 950 
	1    0    0    1   
$EndComp
Wire Wire Line
	1900 950  2600 950 
Wire Wire Line
	2600 850  2550 850 
Wire Wire Line
	2550 850  2550 750 
Wire Wire Line
	1900 1050 1950 1050
Wire Wire Line
	1950 1050 1950 1150
Wire Wire Line
	1950 1150 1900 1150
Wire Wire Line
	1950 1250 1900 1250
Connection ~ 1950 1150
Wire Wire Line
	1950 1350 1900 1350
Connection ~ 1950 1250
$Comp
L power:GND #PWR05
U 1 1 5C7BE0A8
P 1950 1650
F 0 "#PWR05" H 1950 1400 50  0001 C CNN
F 1 "GND" H 1950 1500 50  0000 C CNN
F 2 "" H 1950 1650 50  0001 C CNN
F 3 "" H 1950 1650 50  0001 C CNN
	1    1950 1650
	1    0    0    -1  
$EndComp
Connection ~ 1950 1350
Text GLabel 4900 5450 2    55   Input ~ 0
RST
Wire Wire Line
	4800 5450 4900 5450
Text GLabel 5000 5000 3    55   Input ~ 0
SCK_A
Text GLabel 5100 5000 3    55   Input ~ 0
MOSI_A
Wire Wire Line
	4800 4750 4900 4750
Wire Wire Line
	4800 4850 5100 4850
Wire Wire Line
	4800 4950 5000 4950
$Comp
L power:+5V #PWR06
U 1 1 5C7BE547
P 2400 2650
F 0 "#PWR06" H 2400 2500 50  0001 C CNN
F 1 "+5V" H 2400 2790 50  0000 C CNN
F 2 "" H 2400 2650 50  0001 C CNN
F 3 "" H 2400 2650 50  0001 C CNN
	1    2400 2650
	1    0    0    -1  
$EndComp
Wire Wire Line
	2600 2750 2400 2750
Wire Wire Line
	2400 2650 2400 2750
Wire Wire Line
	2400 3050 2600 3050
Connection ~ 2400 2750
$Comp
L power:GND #PWR07
U 1 1 5C7BE5E5
P 2500 5850
F 0 "#PWR07" H 2500 5600 50  0001 C CNN
F 1 "GND" H 2500 5700 50  0000 C CNN
F 2 "" H 2500 5850 50  0001 C CNN
F 3 "" H 2500 5850 50  0001 C CNN
	1    2500 5850
	1    0    0    -1  
$EndComp
Wire Wire Line
	2600 5650 2500 5650
Wire Wire Line
	2500 5250 2500 5650
Wire Wire Line
	2500 5250 2600 5250
Connection ~ 2500 5650
$Comp
L servo-rescue:Conn_01x02 J2
U 1 1 5C7BEB94
P 5800 4300
F 0 "J2" V 6000 4250 50  0000 C CNN
F 1 "Conn_01x02" V 5900 4200 50  0000 C CNN
F 2 "Pin_Headers:Pin_Header_Angled_1x02_Pitch2.54mm" H 5800 4300 50  0001 C CNN
F 3 "" H 5800 4300 50  0001 C CNN
	1    5800 4300
	0    1    -1   0   
$EndComp
$Comp
L servo-rescue:Conn_01x02 J5
U 1 1 5C7BEDB1
P 6200 4300
F 0 "J5" V 6400 4250 50  0000 C CNN
F 1 "Conn_01x02" V 6300 4300 50  0000 C CNN
F 2 "Pin_Headers:Pin_Header_Angled_1x02_Pitch2.54mm" H 6200 4300 50  0001 C CNN
F 3 "" H 6200 4300 50  0001 C CNN
	1    6200 4300
	0    1    -1   0   
$EndComp
Wire Wire Line
	5700 4500 5700 4550
Wire Wire Line
	5700 4550 4800 4550
Wire Wire Line
	4800 4650 6100 4650
Wire Wire Line
	6100 4650 6100 4500
Wire Wire Line
	5800 4500 5800 4550
Wire Wire Line
	5800 4550 6200 4550
Wire Wire Line
	6200 4500 6200 4550
$Comp
L power:GND #PWR08
U 1 1 5C7BF062
P 6200 4750
F 0 "#PWR08" H 6200 4500 50  0001 C CNN
F 1 "GND" H 6200 4600 50  0000 C CNN
F 2 "" H 6200 4750 50  0001 C CNN
F 3 "" H 6200 4750 50  0001 C CNN
	1    6200 4750
	1    0    0    -1  
$EndComp
Connection ~ 6200 4550
Wire Wire Line
	4800 3850 7350 3850
Wire Wire Line
	7350 3950 4800 3950
NoConn ~ 7350 4150
$Comp
L power:GND #PWR09
U 1 1 5C7BF522
P 7850 4700
F 0 "#PWR09" H 7850 4450 50  0001 C CNN
F 1 "GND" H 7850 4550 50  0000 C CNN
F 2 "" H 7850 4700 50  0001 C CNN
F 3 "" H 7850 4700 50  0001 C CNN
	1    7850 4700
	1    0    0    -1  
$EndComp
Wire Wire Line
	7350 4250 7300 4250
Wire Wire Line
	7300 4250 7300 4600
Wire Wire Line
	7850 4450 7850 4600
Wire Wire Line
	7300 4600 7850 4600
Connection ~ 7850 4600
$Comp
L servo-rescue:RJ45 J7
U 1 1 5C7BF698
P 9900 4300
F 0 "J7" H 10100 4800 50  0000 C CNN
F 1 "RJ45" H 9750 4800 50  0000 C CNN
F 2 "misc:RJ45_8_SH" H 9900 4300 50  0001 C CNN
F 3 "" H 9900 4300 50  0001 C CNN
F 4 "TME:MX-85505-5113" H 0   0   50  0001 C CNN "Shop"
	1    9900 4300
	0    1    -1   0   
$EndComp
Wire Wire Line
	8350 3950 8700 3950
Wire Wire Line
	8350 4150 8400 4150
Wire Wire Line
	8400 4150 8400 4050
Wire Wire Line
	8400 4050 9000 4050
Wire Wire Line
	9450 4150 9350 4150
Wire Wire Line
	9350 4150 9350 4250
Wire Wire Line
	9350 4250 9450 4250
Connection ~ 9350 4250
Wire Wire Line
	9450 4650 9350 4650
Connection ~ 9350 4650
$Comp
L power:GND #PWR010
U 1 1 5C7BFB7D
P 9350 4900
F 0 "#PWR010" H 9350 4650 50  0001 C CNN
F 1 "GND" H 9350 4750 50  0000 C CNN
F 2 "" H 9350 4900 50  0001 C CNN
F 3 "" H 9350 4900 50  0001 C CNN
	1    9350 4900
	1    0    0    -1  
$EndComp
$Comp
L servo-rescue:R R2
U 1 1 5C7BFBEC
P 8850 3800
F 0 "R2" V 8750 3800 50  0000 C CNN
F 1 "inf" V 8950 3800 50  0000 C CNN
F 2 "Resistors_SMD:R_1206_HandSoldering" V 8780 3800 50  0001 C CNN
F 3 "" H 8850 3800 50  0001 C CNN
	1    8850 3800
	0    1    1    0   
$EndComp
Wire Wire Line
	8700 3800 8700 3950
Connection ~ 8700 3950
Wire Wire Line
	9000 3800 9000 4050
Connection ~ 9000 4050
$Comp
L power:+5V #PWR011
U 1 1 5C7BFE75
P 7850 3550
F 0 "#PWR011" H 7850 3400 50  0001 C CNN
F 1 "+5V" H 7850 3690 50  0000 C CNN
F 2 "" H 7850 3550 50  0001 C CNN
F 3 "" H 7850 3550 50  0001 C CNN
	1    7850 3550
	1    0    0    -1  
$EndComp
Wire Wire Line
	7850 3650 7850 3550
$Comp
L servo-rescue:CP C5
U 1 1 5C7BFF7A
P 10450 1850
F 0 "C5" H 10475 1950 50  0000 L CNN
F 1 "10u" H 10475 1750 50  0000 L CNN
F 2 "Capacitors_SMD:CP_Elec_4x5.3" H 10488 1700 50  0001 C CNN
F 3 "" H 10450 1850 50  0001 C CNN
F 4 "TME:RC1C106M04005VR" H 0   0   50  0001 C CNN "Shop"
	1    10450 1850
	1    0    0    -1  
$EndComp
Wire Wire Line
	10450 1650 10450 1700
Wire Wire Line
	10450 2100 10450 2000
Connection ~ 10100 2100
$Comp
L power:GND #PWR012
U 1 1 5C7C013E
P 10600 3850
F 0 "#PWR012" H 10600 3600 50  0001 C CNN
F 1 "GND" H 10600 3700 50  0000 C CNN
F 2 "" H 10600 3850 50  0001 C CNN
F 3 "" H 10600 3850 50  0001 C CNN
	1    10600 3850
	1    0    0    -1  
$EndComp
Wire Wire Line
	10250 3750 10250 3700
Wire Wire Line
	10250 3700 10600 3700
Wire Wire Line
	10600 3700 10600 3850
Wire Wire Line
	5000 4950 5000 5000
Wire Wire Line
	5100 4850 5100 5000
$Comp
L servo-rescue:Conn_01x03 J3
U 1 1 5C7C06AD
P 5950 5050
F 0 "J3" H 5950 4850 50  0000 C CNN
F 1 "Conn_01x03" H 6000 5250 50  0000 C CNN
F 2 "Pin_Headers:Pin_Header_Straight_1x03_Pitch2.54mm" H 5950 5050 50  0001 C CNN
F 3 "" H 5950 5050 50  0001 C CNN
	1    5950 5050
	1    0    0    1   
$EndComp
Connection ~ 5000 4950
Wire Wire Line
	5650 4850 5650 5050
Wire Wire Line
	5650 5050 5750 5050
Connection ~ 5100 4850
$Comp
L power:GND #PWR013
U 1 1 5C7C08C8
P 5700 5300
F 0 "#PWR013" H 5700 5050 50  0001 C CNN
F 1 "GND" H 5700 5150 50  0000 C CNN
F 2 "" H 5700 5300 50  0001 C CNN
F 3 "" H 5700 5300 50  0001 C CNN
	1    5700 5300
	1    0    0    -1  
$EndComp
Wire Wire Line
	5700 5300 5700 5150
Wire Wire Line
	5700 5150 5750 5150
$Comp
L misc:TLE5205-2 U2
U 1 1 5C7C0E57
P 5900 2650
F 0 "U2" H 6000 3000 55  0000 C CNN
F 1 "TLE5205-2" H 6200 2300 55  0000 C CNN
F 2 "TO_SOT_Packages_SMD:TO-263-7_TabPin4" H 5900 2650 55  0001 C CNN
F 3 "" H 5900 2650 55  0001 C CNN
F 4 "TME:TLE5205-2G" H 0   0   50  0001 C CNN "Shop"
	1    5900 2650
	1    0    0    -1  
$EndComp
$Comp
L servo-rescue:Barrel_Jack J4
U 1 1 5C7C104E
P 6200 1200
F 0 "J4" H 6200 1410 50  0000 C CNN
F 1 "Barrel_Jack" H 6200 1025 50  0000 C CNN
F 2 "Connectors:BARREL_JACK" H 6250 1160 50  0001 C CNN
F 3 "" H 6250 1160 50  0001 C CNN
F 4 "TME:NEB21R" H 0   0   50  0001 C CNN "Shop"
	1    6200 1200
	1    0    0    -1  
$EndComp
$Comp
L power:+12V #PWR014
U 1 1 5C7C12D5
P 6600 1000
F 0 "#PWR014" H 6600 850 50  0001 C CNN
F 1 "+12V" H 6600 1140 50  0000 C CNN
F 2 "" H 6600 1000 50  0001 C CNN
F 3 "" H 6600 1000 50  0001 C CNN
	1    6600 1000
	1    0    0    -1  
$EndComp
Wire Wire Line
	6500 1100 6600 1100
Wire Wire Line
	6600 1100 6600 1000
$Comp
L power:GND #PWR015
U 1 1 5C7C1380
P 6600 1350
F 0 "#PWR015" H 6600 1100 50  0001 C CNN
F 1 "GND" H 6600 1200 50  0000 C CNN
F 2 "" H 6600 1350 50  0001 C CNN
F 3 "" H 6600 1350 50  0001 C CNN
	1    6600 1350
	1    0    0    -1  
$EndComp
Wire Wire Line
	6500 1300 6600 1300
Wire Wire Line
	6600 1200 6600 1300
Wire Wire Line
	6500 1200 6600 1200
Connection ~ 6600 1300
$Comp
L power:GND #PWR016
U 1 1 5C7C17D0
P 5900 3600
F 0 "#PWR016" H 5900 3350 50  0001 C CNN
F 1 "GND" H 5900 3450 50  0000 C CNN
F 2 "" H 5900 3600 50  0001 C CNN
F 3 "" H 5900 3600 50  0001 C CNN
	1    5900 3600
	1    0    0    -1  
$EndComp
Wire Wire Line
	5900 3150 5900 3400
$Comp
L power:+12V #PWR017
U 1 1 5C7C190F
P 5900 2100
F 0 "#PWR017" H 5900 1950 50  0001 C CNN
F 1 "+12V" H 5900 2240 50  0000 C CNN
F 2 "" H 5900 2100 50  0001 C CNN
F 3 "" H 5900 2100 50  0001 C CNN
	1    5900 2100
	1    0    0    -1  
$EndComp
Wire Wire Line
	5900 2150 5900 2100
Wire Wire Line
	5400 2750 4800 2750
Wire Wire Line
	4800 2850 5400 2850
Wire Wire Line
	5400 2650 5350 2650
Wire Wire Line
	5350 2550 5350 2650
Wire Wire Line
	5350 2950 4800 2950
$Comp
L servo-rescue:R R1
U 1 1 5C7C1D59
P 5350 2400
F 0 "R1" H 5450 2500 50  0000 C CNN
F 1 "2k" H 5450 2400 50  0000 C CNN
F 2 "Resistors_SMD:R_1206_HandSoldering" V 5280 2400 50  0001 C CNN
F 3 "" H 5350 2400 50  0001 C CNN
F 4 "GME:900-070" H 0   0   50  0001 C CNN "Shop"
	1    5350 2400
	1    0    0    -1  
$EndComp
Connection ~ 5350 2650
$Comp
L power:+5V #PWR018
U 1 1 5C7C1F64
P 5350 2150
F 0 "#PWR018" H 5350 2000 50  0001 C CNN
F 1 "+5V" H 5350 2290 50  0000 C CNN
F 2 "" H 5350 2150 50  0001 C CNN
F 3 "" H 5350 2150 50  0001 C CNN
	1    5350 2150
	1    0    0    -1  
$EndComp
Wire Wire Line
	5350 2250 5350 2150
Wire Wire Line
	6400 2600 6800 2600
Wire Wire Line
	6400 2700 6800 2700
NoConn ~ 4800 3050
NoConn ~ 4800 3150
NoConn ~ 4800 3750
NoConn ~ 4800 4050
NoConn ~ 4800 4250
NoConn ~ 4800 4350
NoConn ~ 2600 3450
NoConn ~ 9450 4550
NoConn ~ 9450 4450
NoConn ~ 9450 4350
NoConn ~ 1650 1050
NoConn ~ 4800 5050
NoConn ~ 4800 5150
NoConn ~ 4800 5250
Text GLabel 1100 1350 0    55   Input ~ 0
MISO_A
$Comp
L servo-rescue:MCP2551-I_SN U3
U 1 1 5C7C3624
P 7850 4050
F 0 "U3" H 7450 4400 50  0000 L CNN
F 1 "MCP2551-I/SN" H 7950 4400 50  0000 L CNN
F 2 "Housings_SOIC:SOIC-8_3.9x4.9mm_Pitch1.27mm" H 7850 3550 50  0001 C CIN
F 3 "" H 7850 4050 50  0001 C CNN
F 4 "TME:MCP2551-I/SN" H 0   0   50  0001 C CNN "Shop"
	1    7850 4050
	1    0    0    -1  
$EndComp
$Comp
L servo-rescue:R R3
U 1 1 5C7C46C2
P 6500 6800
F 0 "R3" H 6650 6850 50  0000 C CNN
F 1 "10k" H 6650 6750 50  0000 C CNN
F 2 "Resistors_SMD:R_1206_HandSoldering" V 6430 6800 50  0001 C CNN
F 3 "" H 6500 6800 50  0001 C CNN
F 4 "GME:900-508" H 0   0   50  0001 C CNN "Shop"
	1    6500 6800
	1    0    0    -1  
$EndComp
Text GLabel 6500 7050 3    60   Input ~ 0
RST
Wire Wire Line
	6500 7050 6500 6950
$Comp
L power:+5V #PWR019
U 1 1 5C7C49B8
P 6500 6550
F 0 "#PWR019" H 6500 6400 50  0001 C CNN
F 1 "+5V" H 6500 6690 50  0000 C CNN
F 2 "" H 6500 6550 50  0001 C CNN
F 3 "" H 6500 6550 50  0001 C CNN
	1    6500 6550
	1    0    0    -1  
$EndComp
Wire Wire Line
	6500 6650 6500 6550
$Comp
L servo-rescue:Crystal Y1
U 1 1 5C7C5088
P 5250 5850
F 0 "Y1" H 5250 6000 50  0000 C CNN
F 1 "8MHz" H 5250 5700 50  0000 C CNN
F 2 "Crystals:Crystal_SMD_HC49-SD" H 5250 5850 50  0001 C CNN
F 3 "" H 5250 5850 50  0001 C CNN
F 4 "GME:970-023" H 0   0   50  0001 C CNN "Shop"
	1    5250 5850
	1    0    0    -1  
$EndComp
Wire Wire Line
	4800 5650 5050 5650
Wire Wire Line
	5050 5650 5050 5850
Wire Wire Line
	5050 5850 5100 5850
Wire Wire Line
	4800 5550 5500 5550
Wire Wire Line
	5500 5550 5500 5850
Wire Wire Line
	5500 5850 5400 5850
$Comp
L servo-rescue:C C1
U 1 1 5C7C532C
P 5050 6250
F 0 "C1" H 5075 6350 50  0000 L CNN
F 1 "22p" H 5075 6150 50  0000 L CNN
F 2 "Capacitors_SMD:C_1206_HandSoldering" H 5088 6100 50  0001 C CNN
F 3 "" H 5050 6250 50  0001 C CNN
F 4 "GME:905-099" H 0   0   50  0001 C CNN "Shop"
	1    5050 6250
	1    0    0    -1  
$EndComp
$Comp
L servo-rescue:C C2
U 1 1 5C7C5377
P 5500 6250
F 0 "C2" H 5525 6350 50  0000 L CNN
F 1 "22p" H 5525 6150 50  0000 L CNN
F 2 "Capacitors_SMD:C_1206_HandSoldering" H 5538 6100 50  0001 C CNN
F 3 "" H 5500 6250 50  0001 C CNN
F 4 "GME:905-099" H 0   0   50  0001 C CNN "Shop"
	1    5500 6250
	1    0    0    -1  
$EndComp
Connection ~ 5500 5850
Connection ~ 5050 5850
$Comp
L power:GND #PWR020
U 1 1 5C7C54DF
P 5300 6500
F 0 "#PWR020" H 5300 6250 50  0001 C CNN
F 1 "GND" H 5300 6350 50  0000 C CNN
F 2 "" H 5300 6500 50  0001 C CNN
F 3 "" H 5300 6500 50  0001 C CNN
	1    5300 6500
	1    0    0    -1  
$EndComp
Wire Wire Line
	5050 6400 5050 6450
Wire Wire Line
	5050 6450 5300 6450
Wire Wire Line
	5300 6450 5300 6500
Wire Wire Line
	5500 6450 5500 6400
Connection ~ 5300 6450
$Comp
L servo-rescue:Conn_01x02 J6
U 1 1 5C7D9A8C
P 7000 2600
F 0 "J6" V 7200 2550 50  0000 C CNN
F 1 "Conn_01x02" V 7100 2600 50  0000 C CNN
F 2 "Pin_Headers:Pin_Header_Angled_1x02_Pitch2.54mm" H 7000 2600 50  0001 C CNN
F 3 "" H 7000 2600 50  0001 C CNN
	1    7000 2600
	1    0    0    -1  
$EndComp
$Comp
L servo-rescue:Mounting_Hole_PAD MK1
U 1 1 5C7DA090
P 6950 5400
F 0 "MK1" H 6950 5650 50  0000 C CNN
F 1 "Mounting_Hole_PAD" H 6950 5575 50  0000 C CNN
F 2 "Connectors:1pin" H 6950 5400 50  0001 C CNN
F 3 "" H 6950 5400 50  0001 C CNN
	1    6950 5400
	1    0    0    -1  
$EndComp
$Comp
L servo-rescue:Mounting_Hole_PAD MK2
U 1 1 5C7DA1C5
P 7800 5400
F 0 "MK2" H 7800 5650 50  0000 C CNN
F 1 "Mounting_Hole_PAD" H 7800 5575 50  0000 C CNN
F 2 "Connectors:1pin" H 7800 5400 50  0001 C CNN
F 3 "" H 7800 5400 50  0001 C CNN
	1    7800 5400
	1    0    0    -1  
$EndComp
Wire Wire Line
	6950 5500 6950 5700
Wire Wire Line
	6950 5700 7350 5700
Wire Wire Line
	7800 5700 7800 5500
$Comp
L power:GND #PWR021
U 1 1 5C7DA406
P 7350 5850
F 0 "#PWR021" H 7350 5600 50  0001 C CNN
F 1 "GND" H 7350 5700 50  0000 C CNN
F 2 "" H 7350 5850 50  0001 C CNN
F 3 "" H 7350 5850 50  0001 C CNN
	1    7350 5850
	1    0    0    -1  
$EndComp
Wire Wire Line
	7350 5700 7350 5850
Connection ~ 7350 5700
$Comp
L servo-rescue:SW_Push SW1
U 1 1 5C7DABD3
P 5150 4150
F 0 "SW1" H 5200 4250 50  0000 L CNN
F 1 "SW_Push" H 5150 4090 50  0000 C CNN
F 2 "Buttons_Switches_SMD:SW_SPST_PTS645" H 5150 4350 50  0001 C CNN
F 3 "" H 5150 4350 50  0001 C CNN
F 4 "TME:PTS645SM43SMTR92LF" H 0   0   50  0001 C CNN "Shop"
	1    5150 4150
	1    0    0    -1  
$EndComp
$Comp
L servo-rescue:SW_Push SW2
U 1 1 5C7DAC40
P 5150 3650
F 0 "SW2" H 5200 3750 50  0000 L CNN
F 1 "SW_Push" H 5150 3590 50  0000 C CNN
F 2 "Buttons_Switches_SMD:SW_SPST_PTS645" H 5150 3850 50  0001 C CNN
F 3 "" H 5150 3850 50  0001 C CNN
F 4 "TME:PTS645SM43SMTR92LF" H 0   0   50  0001 C CNN "Shop"
	1    5150 3650
	1    0    0    -1  
$EndComp
Wire Wire Line
	5350 3650 5600 3650
Wire Wire Line
	5600 3400 5600 3650
Wire Wire Line
	5600 3400 5900 3400
Connection ~ 5900 3400
Wire Wire Line
	4800 3650 4950 3650
Wire Wire Line
	4800 4150 4950 4150
Wire Wire Line
	5600 4150 5350 4150
Connection ~ 5600 3650
Wire Wire Line
	9500 2100 10100 2100
Wire Wire Line
	9500 2100 9500 2250
Wire Wire Line
	8900 1650 8900 1700
Wire Wire Line
	10100 1650 10450 1650
Wire Wire Line
	10100 1650 10100 1700
Wire Wire Line
	1950 1150 1950 1250
Wire Wire Line
	1950 1250 1950 1350
Wire Wire Line
	1950 1350 1950 1650
Wire Wire Line
	2400 2750 2400 3050
Wire Wire Line
	2500 5650 2500 5850
Wire Wire Line
	6200 4550 6200 4750
Wire Wire Line
	7850 4600 7850 4700
Wire Wire Line
	9350 4250 9350 4650
Wire Wire Line
	9350 4650 9350 4900
Wire Wire Line
	8700 3950 9450 3950
Wire Wire Line
	9000 4050 9450 4050
Wire Wire Line
	10100 2100 10450 2100
Wire Wire Line
	5000 4950 5750 4950
Wire Wire Line
	5100 4850 5650 4850
Wire Wire Line
	6600 1300 6600 1350
Wire Wire Line
	5350 2650 5350 2950
Wire Wire Line
	5500 5850 5500 6100
Wire Wire Line
	5050 5850 5050 6100
Wire Wire Line
	5300 6450 5500 6450
Wire Wire Line
	7350 5700 7800 5700
Wire Wire Line
	5900 3400 5900 3600
Wire Wire Line
	5600 3650 5600 4150
$Comp
L Device:LED_CRGB D1
U 1 1 5C89B01E
P 3900 1750
F 0 "D1" H 3900 2247 50  0000 C CNN
F 1 "LED_CRGB" H 3900 2156 50  0000 C CNN
F 2 "LED_SMD:LED_RGB_1210" H 3900 1700 50  0001 C CNN
F 3 "~" H 3900 1700 50  0001 C CNN
F 4 "TME:HSMF-C118" H 3900 1750 50  0001 C CNN "Shop"
	1    3900 1750
	1    0    0    -1  
$EndComp
$Comp
L power:GND #PWR0101
U 1 1 5C8A0172
P 3550 1900
F 0 "#PWR0101" H 3550 1650 50  0001 C CNN
F 1 "GND" H 3550 1750 50  0000 C CNN
F 2 "" H 3550 1900 50  0001 C CNN
F 3 "" H 3550 1900 50  0001 C CNN
	1    3550 1900
	1    0    0    -1  
$EndComp
Wire Wire Line
	3550 1900 3550 1750
Wire Wire Line
	3550 1750 3700 1750
$Comp
L servo-rescue:R R4
U 1 1 5C8A4B02
P 4350 1550
F 0 "R4" V 4250 1400 50  0000 C CNN
F 1 "270" V 4250 1650 50  0000 C CNN
F 2 "Resistor_SMD:R_1206_3216Metric_Pad1.42x1.75mm_HandSolder" V 4280 1550 50  0001 C CNN
F 3 "" H 4350 1550 50  0001 C CNN
F 4 "GME:900-070" H -1000 -850 50  0001 C CNN "Shop"
	1    4350 1550
	0    1    1    0   
$EndComp
$Comp
L servo-rescue:R R5
U 1 1 5C8A4E22
P 4350 1750
F 0 "R5" V 4250 1600 50  0000 C CNN
F 1 "270" V 4250 1850 50  0000 C CNN
F 2 "Resistor_SMD:R_1206_3216Metric_Pad1.42x1.75mm_HandSolder" V 4280 1750 50  0001 C CNN
F 3 "" H 4350 1750 50  0001 C CNN
F 4 "GME:900-070" H -1000 -650 50  0001 C CNN "Shop"
	1    4350 1750
	0    1    1    0   
$EndComp
$Comp
L servo-rescue:R R6
U 1 1 5C8A4E6E
P 4350 1950
F 0 "R6" V 4250 1800 50  0000 C CNN
F 1 "270" V 4250 2050 50  0000 C CNN
F 2 "Resistor_SMD:R_1206_3216Metric_Pad1.42x1.75mm_HandSolder" V 4280 1950 50  0001 C CNN
F 3 "" H 4350 1950 50  0001 C CNN
F 4 "GME:900-070" H -1000 -450 50  0001 C CNN "Shop"
	1    4350 1950
	0    1    1    0   
$EndComp
Wire Wire Line
	4100 1550 4200 1550
Wire Wire Line
	4100 1750 4200 1750
Wire Wire Line
	4100 1950 4200 1950
Wire Wire Line
	4500 1950 4850 1950
Wire Wire Line
	4800 3350 4950 3350
Wire Wire Line
	4500 1750 4950 1750
Wire Wire Line
	4800 3450 4850 3450
Wire Wire Line
	4500 1550 5050 1550
Wire Wire Line
	4950 3350 4950 1750
Wire Wire Line
	4850 1950 4850 3450
Wire Wire Line
	4800 3250 5050 3250
Wire Wire Line
	5050 3250 5050 1550
$EndSCHEMATC
